{
    "index": {
        "download_fdroid": "TÉLÉCHARGEZ F-DROID", 
        "introduction": "F-Droid est un catalogue [installable](https://f-droid.org/FDroid.apk) d'applications de logiciels libres et Open Source pour la plate-forme Android. Le client facilite la navigation, l'installation et le suivi des mises à jour sur votre appareil.", 
        "screenshot": "Capture d'écran de l'application Android F-Droid", 
        "title": "Qu’est-ce que F-Droid ?"
    }, 
    "navigation": {
        "about": "Sur", 
        "browse": "Feuilleter", 
        "contribute": "Contribuer", 
        "documentation": "Docs", 
        "forum": "Forum", 
        "issues": "Problèmes", 
        "news": "Nouvelles"
    }, 
    "sidebars": {
        "donate": {
            "bank_transfer_name": "Prénom", 
            "heading": "Faire un don", 
            "powered_by_donations": "F-Droid est alimenté par vos dons !", 
            "via_bank_transfer": "Virement", 
            "via_bitcoin": "Bitcoin", 
            "via_flattr": "Flattr", 
            "via_paypal": "Faire un don"
        }, 
        "last_updated": {
            "heading": "Dernière mise à jour"
        }, 
        "latest_packages": {
            "heading": "Dernières applications"
        }, 
        "news": {
            "heading": "Nouvelles"
        }
    }
}