{
    "index": {
        "download_fdroid": "F-Droid Herunterladen", 
        "introduction": "F-Droid ist ein [installierbarer](https://f-droid.org/FDroid.apk) Katalog mit FOSS (Freie Open Source Software) Apps für Android. Der Client macht es einfach nach Apps zu suchen, Sie zu installieren und über Updates benachrichtigt zu werden.", 
        "screenshot": "F-Droid Android App Screenshot", 
        "title": "Was ist F-Droid?"
    }, 
    "navigation": {
        "about": "Über", 
        "browse": "Durchsuchen", 
        "contribute": "Mitmachen", 
        "documentation": "Docs", 
        "forum": "Forum", 
        "news": "News"
    }, 
    "sidebars": {
        "donate": {
            "bank_transfer_name": "Name", 
            "heading": "Spenden", 
            "powered_by_donations": "F-Droid wird durch Deine Spenden unterstützt!", 
            "via_bank_transfer": "Überweisung", 
            "via_bitcoin": "Bitcoin", 
            "via_flattr": "Flattr", 
            "via_paypal": "Spenden"
        }, 
        "last_updated": {
            "heading": "Letzte Änderung:"
        }, 
        "news": {
            "heading": "News"
        }
    }
}